<?xml version="1.0" encoding="UTF-8"?>
<svg width="48px" height="48px" viewBox="0 0 48 48" version="1.1" xmlns="http://www.w3.org/2000/svg" xmlns:xlink="http://www.w3.org/1999/xlink">
    <title>Energie Direct/Energie Direct - Light</title>
    <g id="Energie-Direct/Energie-Direct---Light" stroke="none" stroke-width="1" fill="none" fill-rule="evenodd">
        <g id="Energie-Direct" transform="translate(10.000000, 17.000000)" fill-rule="nonzero">
            <path d="M3.62987245,1.56636236 L3.62987245,2.44103899 L2.07505035,2.44103899 C1.50740255,2.46142656 1.32676682,2.7597813 1.32676682,3.25703919 L3.62987245,3.25703919 L3.62987245,4.18044709 L1.32676682,4.18044709 C1.32676682,4.74881286 1.55256149,4.94771601 2.18478655,4.94771601 L3.62987245,4.94771601 L3.62987245,5.85173087 L1.88041535,5.85173087 C-0.389272667,5.89250601 -0.479590535,1.56636236 1.88041535,1.56636236 L3.62987245,1.56636236 Z" id="Path" fill="#000000"></path>
            <path d="M11.9842752,1.56636236 L11.9842752,2.44103899 L10.4294531,2.44103899 C9.86180532,2.46142656 9.68116957,2.7597813 9.68116957,3.25703919 L11.9842752,3.25703919 L11.9842752,4.18044709 L9.68116957,4.18044709 C9.68116957,4.74881286 9.90696424,4.94771601 10.5391893,4.94771601 L11.9842752,4.94771601 L11.9842752,5.85173087 L10.2348181,5.85173087 C7.96513008,5.89250601 7.87481223,1.56636236 10.2348181,1.56636236 L11.9842752,1.56636236 Z" id="Path" fill="#000000"></path>
            <path d="M25.8480679,1.56636236 L25.8480679,2.44103899 L24.2932458,2.44103899 C23.7255981,2.46142656 23.5449622,2.7597813 23.5449622,3.25703919 L25.8480679,3.25703919 L25.8480679,4.18044709 L23.5449622,4.18044709 C23.5449622,4.74881286 23.7707569,4.94771601 24.4029819,4.94771601 L25.8480679,4.94771601 L25.8480679,5.85173087 L24.0986108,5.85173087 C21.8289228,5.89250601 21.7386048,1.56636236 24.0986108,1.56636236 L25.8480679,1.56636236 Z" id="Path" fill="#000000"></path>
            <path d="M4.28558016,5.85222812 L4.28558016,1.56636236 L6.08606685,1.56636236 C7.51354075,1.56636236 7.87481223,2.01389445 7.87481223,3.25703919 L7.87481223,5.85222812 L6.83615675,5.85222812 L6.83615675,3.20731339 C6.83615675,2.51115235 6.655521,2.46142656 5.34591192,2.51115235 L5.34591192,5.85222812 L4.28558016,5.85222812 Z" id="Path" fill="#000000"></path>
            <path d="M12.6282416,5.85222812 L12.6282416,1.56636236 L14.4382117,1.56636236 C15.1905595,1.56636236 15.4615131,1.91444288 15.4615131,2.51115235 L15.4615131,3.35649076 L14.4680166,3.35649076 L14.4680166,2.80950708 C14.4680166,2.41170078 14.3325398,2.36197499 13.6551558,2.36197499 L13.6551558,5.85222812 L12.6282416,5.85222812 Z" id="Path" fill="#000000"></path>
            <rect id="Rectangle" fill="#000000" x="20.6186634" y="1.56636236" width="1.01" height="4.28586576"></rect>
            <rect id="Rectangle" fill="#000000" x="20.6186634" y="0" width="1.01" height="1"></rect>
            <path d="M19.7588373,5.74979299 L19.7588373,1.56636236 L17.862162,1.56636236 C15.0984353,1.41718499 15.2339121,6.09140916 17.862162,5.85222812 L18.7445676,5.85222812 C18.7563089,6.29031232 18.6208321,6.53894127 18.0789249,6.53546046 L16.2725676,6.53546046 L16.2725676,7.41610419 L18.3896184,7.41610419 C19.3451814,7.43400547 19.7967708,6.78757022 19.7588373,5.74979299 Z M18.7143111,4.96114198 L17.9466092,4.96114198 C16.5918412,5.0471676 16.5015234,2.46142656 17.9466092,2.51115235 L18.7143111,2.51115235 L18.7143111,4.96114198 Z" id="Shape" fill="#000000"></path>
            <path d="M13.4659398,9.71691644 L13.4659398,10.5910958 L11.9111177,10.5910958 C11.3434699,10.6119806 11.1628342,10.9103354 11.1628342,11.4075933 L13.4659398,11.4075933 L13.4659398,12.3310012 L11.1628342,12.3310012 C11.1628342,12.8993669 11.3886289,13.0982701 12.0208539,13.0982701 L13.4659398,13.0982701 L13.4659398,14.002285 L11.7164827,14.002285 C9.44679471,14.0430601 9.35647684,9.71691644 11.7164827,9.71691644 L13.4659398,9.71691644 Z" id="Path" fill="#62B32E"></path>
            <path d="M22.5663683,14.0027822 L22.5663683,9.71691644 L24.3650486,9.71691644 C25.7925224,9.71691644 26.1537939,10.1644486 26.1537939,11.4075933 L26.1537939,14.002285 L25.1151383,14.002285 L25.1151383,11.3578675 C25.1151383,10.6617064 24.9345027,10.6119806 23.6248936,10.6617064 L23.6248936,14.002285 L22.5663683,14.0027822 Z" id="Path" fill="#62B32E"></path>
            <path d="M6.74945159,14.0027822 L6.74945159,9.71691644 L8.55942166,9.71691644 C9.3117695,9.71691644 9.58272311,10.064997 9.58272311,10.6617064 L9.58272311,11.5070448 L8.58922657,11.5070448 L8.58922657,10.9600612 C8.58922657,10.5622549 8.45374975,10.5125291 7.77636575,10.5125291 L7.77636575,14.002285 L6.74945159,14.0027822 Z" id="Path" fill="#62B32E"></path>
            <rect id="Rectangle" fill="#62B32E" x="4.80445632" y="9.71741371" width="1.01" height="4.28586576"></rect>
            <rect id="Rectangle" fill="#62B32E" x="4.80445632" y="8.15105135" width="1.01" height="1"></rect>
            <path d="M17.3654138,9.71691644 L17.3654138,10.635849 L16.1623798,10.635849 C14.5497542,10.5125291 14.5497542,13.1977217 16.1623798,13.0893195 L17.3654138,13.0893195 L17.3654138,14.002285 L15.9352303,14.002285 C13.2853041,14.0927859 13.1046684,9.61746487 15.9352303,9.71691644 L17.3654138,9.71691644 Z" id="Path" fill="#62B32E"></path>
            <rect id="Rectangle" fill="#62B32E" x="26.9946532" y="8.15105135" width="1.01" height="5.85222812"></rect>
            <path d="M18.3851025,8.15105135 L18.3851025,9.71691644 L17.6670754,9.71691644 L17.6670754,10.5622549 L18.3851025,10.5622549 L18.3851025,12.650738 C18.3882636,13.6452538 18.8511427,14.0077548 19.6351018,14.0048075 L20.5039597,14.0048075 L20.5039597,13.1479959 L20.0591441,13.1479959 C19.472078,13.1479959 19.4269191,12.8993669 19.4269191,12.2529317 L19.4269191,10.5622549 L20.5039597,10.5622549 L20.5039597,9.71691644 L19.4201453,9.71691644 L19.4201453,8.15105135 L18.3851025,8.15105135 Z" id="Path" fill="#62B32E"></path>
            <rect id="Rectangle" fill="#62B32E" x="20.9623228" y="12.9993158" width="1.01" height="1"></rect>
            <path d="M2.87300871,8.15105135 L2.87300871,9.71691644 L1.9458958,9.71691644 C-0.804283268,9.71691644 -0.488170732,14.0927859 1.9458958,14.002285 L3.90398717,14.002285 L3.90398717,8.15105135 L2.87300871,8.15105135 Z M2.85359038,13.0739045 L2.0858885,13.0739045 C0.731120482,13.1002591 0.776279416,10.6636955 2.0858885,10.6636955 L2.85359038,10.6636955 L2.85359038,13.0739045 Z" id="Shape" fill="#62B32E"></path>
        </g>
    </g>
</svg>